<svg id="Layer_1" data-name="Layer 1" xmlns="http://www.w3.org/2000/svg" xmlns:xlink="http://www.w3.org/1999/xlink" width="1280" height="320" viewBox="0 0 1280 320">
  <defs>
    <style>
      .cls-1 {
        fill: none;
      }

      .cls-2 {
        clip-path: url(#clip-path);
      }

      .cls-3 {
        fill: url(#linear-gradient);
      }

      .cls-4 {
        fill: #fff;
        opacity: 0.05;
      }
    </style>
    <clipPath id="clip-path">
      <rect class="cls-1" width="1280" height="788.06"/>
    </clipPath>
    <linearGradient id="linear-gradient" x1="-199.3" y1="57.98" x2="1653.68" y2="57.98" gradientUnits="userSpaceOnUse">
      <stop offset="0" stop-color="#192ceb"/>
      <stop offset="1" stop-color="#3bbeeb"/>
    </linearGradient>
  </defs>
  <title>Artboard 9</title>
  <g>
    <g class="cls-2">
      <path class="cls-3" d="M1558.44,340.12c-101.17,0-389-34.57-620.15-108S567.72,110.81,300.92,119.2-199.3,181-199.3,181l24.19-405.13,1649.33,29.45,179.46,28.59Z"/>
    </g>
    <g class="cls-2">
      <path class="cls-4" d="M1921.71,292.82c-149.2,0-510.48-30.79-746.61-95.18s-344.13-106-739-78.59S-367.45,276.34-367.45,276.34l-238-524.56L1827-223.06l264.67,24.43Z"/>
    </g>
  </g>
</svg>
