<svg id="Layer_1" data-name="Layer 1" xmlns="http://www.w3.org/2000/svg" width="30" height="30" viewBox="0 0 30 30">
  <defs>
    <style>
      .cls-1 {
        fill: #fff;
      }
    </style>
  </defs>
  <title>Artboard 7</title>
  <path class="cls-1" d="M22.6,7.4H7.4A1.9,1.9,0,0,0,5.51,9.3V20.7a1.91,1.91,0,0,0,1.9,1.9H22.6a1.9,1.9,0,0,0,1.9-1.9V9.3A1.91,1.91,0,0,0,22.6,7.4Zm-1,13.3H8.35a1,1,0,0,1-.95-.95V11.2L14,15.32a1.89,1.89,0,0,0,2,0L22.6,11.2v8.55A1,1,0,0,1,21.65,20.7ZM15,14.05,7.4,9.3H22.6Z"/>
</svg>
