<svg id="Layer_1" data-name="Layer 1" xmlns="http://www.w3.org/2000/svg" width="30" height="30" viewBox="0 0 30 30">
  <defs>
    <style>
      .cls-1 {
        fill: #fff;
      }
    </style>
  </defs>
  <title>Artboard 5</title>
  <path class="cls-1" d="M15,6c-2.44,0-2.75,0-3.71,0a6.8,6.8,0,0,0-2.18.42A4.67,4.67,0,0,0,6.47,9.11a6.44,6.44,0,0,0-.41,2.18C6,12.25,6,12.56,6,15s0,2.75.06,3.71a6.21,6.21,0,0,0,.42,2.18,4.36,4.36,0,0,0,1,1.6,4.47,4.47,0,0,0,1.6,1,6.7,6.7,0,0,0,2.18.42c1,0,1.26.05,3.71.05s2.75,0,3.71-.05a6.75,6.75,0,0,0,2.18-.42,4.59,4.59,0,0,0,2.63-2.64,6.21,6.21,0,0,0,.42-2.18c0-.95.06-1.26.06-3.71s0-2.75-.06-3.71a6.25,6.25,0,0,0-.42-2.18,4.49,4.49,0,0,0-2.63-2.63,6.45,6.45,0,0,0-2.18-.43C17.75,6,17.45,6,15,6Zm-.8,1.62H15c2.41,0,2.69,0,3.64,0A5.06,5.06,0,0,1,20.31,8a2.89,2.89,0,0,1,1,.68,3,3,0,0,1,.67,1,5.12,5.12,0,0,1,.31,1.67c0,1,.05,1.23.05,3.64s0,2.69-.05,3.64A5.12,5.12,0,0,1,22,20.31,3,3,0,0,1,20.31,22a4.75,4.75,0,0,1-1.67.31c-.95.05-1.23.06-3.64.06s-2.69,0-3.63-.06A4.88,4.88,0,0,1,9.69,22,3,3,0,0,1,8,20.31a4.81,4.81,0,0,1-.31-1.68c0-.95-.06-1.22-.06-3.63s0-2.69.06-3.64A4.75,4.75,0,0,1,8,9.69a2.74,2.74,0,0,1,.67-1,2.83,2.83,0,0,1,1-.67,5.1,5.1,0,0,1,1.68-.31c.83,0,1.15,0,2.82,0Zm5.61,1.5a1.08,1.08,0,1,0,1.08,1.08h0A1.08,1.08,0,0,0,19.81,9.12ZM15,10.38A4.62,4.62,0,1,0,19.63,15h0A4.62,4.62,0,0,0,15,10.38ZM15,12a3,3,0,1,1-3,3A3,3,0,0,1,15,12Z"/>
</svg>
