<svg id="Layer_1" data-name="Layer 1" xmlns="http://www.w3.org/2000/svg" width="30" height="30" viewBox="0 0 30 30">
  <defs>
    <style>
      .cls-1 {
        fill: #fff;
      }
    </style>
  </defs>
  <title>Artboard 6</title>
  <path class="cls-1" d="M11.85,21.91A9.86,9.86,0,0,0,21.77,12c0-.15,0-.3,0-.45a7.09,7.09,0,0,0,1.74-1.8,7.34,7.34,0,0,1-2,.55A3.57,3.57,0,0,0,23,8.35a7,7,0,0,1-2.21.84,3.49,3.49,0,0,0-6,3.18A9.9,9.9,0,0,1,7.68,8.73a3.51,3.51,0,0,0,1.08,4.66A3.54,3.54,0,0,1,7.18,13v0A3.49,3.49,0,0,0,10,16.41a3.51,3.51,0,0,1-1.58.06,3.49,3.49,0,0,0,3.26,2.42,7,7,0,0,1-4.33,1.5,7.7,7.7,0,0,1-.83-.05,9.85,9.85,0,0,0,5.35,1.56"/>
</svg>
